NonRunners,Draw,Jockey,RaceDate,Gear,url,TimeFactor,Age,Rrace,Rracetime,Rracedistance,Sectionals,RaceTime,Result,Stable,owner,HorseNo,HorseName,Rracerating,Runners,Perf
-,,,"10 - Saturday, 18 May 2013",,http://www.mauritiusturfclub.com/index.php/en/racing/racecards?meeting=10-2013,,,1. THE SHARP PIP CUP.,12h45,1500 m,,1m31.56,3 - 5 - 4 - 1 - 8 - 2 - 7 - 6 - 9,,,,,Rating 25-0,9,
-,,,"10 - Saturday, 18 May 2013",,http://www.mauritiusturfclub.com/index.php/en/racing/racecards?meeting=10-2013,,,2. THE EDMÉ GAUTHIER CUP.,13h15,1000 m,,0m57.36,6 - 7 - 5 - 4 - 3 - 2 - 1,,,,,Rating 31-15,7,
-,,,"10 - Saturday, 18 May 2013",,http://www.mauritiusturfclub.com/index.php/en/racing/racecards?meeting=10-2013,,,3. THE SAINT MALO CUP.,13h50,1600 m,,1m37.58,5 - 9 - 2 - 1 - 6 - 8 - 3 - 4 - 7,,,,,Rating 36-20,9,
-,,,"10 - Saturday, 18 May 2013",,http://www.mauritiusturfclub.com/index.php/en/racing/racecards?meeting=10-2013,,,4. THE CHINTAMUN GUJADHUR CUP.,14h25,1365 m,,1m21.74,7 - 3 - 4 - 5 - 6 - 1 - 2,,,,,Rating 41-25,7,
-,,,"10 - Saturday, 18 May 2013",,http://www.mauritiusturfclub.com/index.php/en/racing/racecards?meeting=10-2013,,,5. THE KASTHURI CHINNAPEN MEMORIAL CUP.,15h00,1850 m,,1m52.69,4 - 1 - 5 - 3 - 8 - 7 - 2 - 9 - 6,,,,,Rating 66-50,9,
-,,,"10 - Saturday, 18 May 2013",,http://www.mauritiusturfclub.com/index.php/en/racing/racecards?meeting=10-2013,,,6. THE BLACK CAVIAR LIGHTNING CUP.,15h35,1000 m,,0m56.02,4 - 1 - 3 - 9 - 6 - 8 - 5 - 2 - 7,,,,,Rating 50+,9,
-,,,"10 - Saturday, 18 May 2013",,http://www.mauritiusturfclub.com/index.php/en/racing/racecards?meeting=10-2013,,,7. THE SIR ALEX FERGUSON FAREWELL TROPHY.,16h10,1500 m,,1m32.05,4 - 9 - 5 - 10 - 8 - 1 - 6 - 7 - 3 - 2,,,,,Rating 25-0,10,
-,,,"10 - Saturday, 18 May 2013",,http://www.mauritiusturfclub.com/index.php/en/racing/racecards?meeting=10-2013,,,8. THE VERDOT PLATE.,16h45,1365 m,,1m22.12,9 - 5 - 1 - 10 - 7 - 2 - 6 - 4 - 8 - 3,,,,,Rating 46-30,10,
